<svg viewbox="0 0 300 300" xmlns="http://www.w3.org/2000/svg">
	<style>
		.node-text {
			font-family: "Fira Code";
			font-size: 14px;
		}
	</style>
	<path d="
		M 50,50 m -5,5
		h 48.5

		c 5,0 0,-20 15,-20
		h 38.875
		m -15,20
		m -38.875,0

		c 5,0 0,0 15,0
		h 38.875
		m -15,0
		m -38.875,0

		c 5,0 0,20, 15,20
		h 58.125
		m -15,-20
		m -58.125,0
	" stroke="black" stroke-width="1" fill="none"/>
	
	<text x="50" y="50" class="node-text">Root</text>

	<text x="115" y="30" class="node-text">One</text>
	<text x="115" y="50" class="node-text">Two</text>
	<text x="115" y="70" class="node-text">Three</text>

<!--
How to draw the curves




-->

</svg>
